Obter tabelas sobre atas dos Comitês de Bacia — obter_tabela_atas_comites • ComitesBaciaSP
…
    Arguments

      n_comite
      Número referente ao comitê. É possível verificar na base:  comites_sp.

    Value

    Retorna uma tibble. Uma base com dados coletados para todos os comitês está disponível em atas_comites.

    Examples

obter_tabela_atas_comites(6)

#> # A tibble: 147 x 9
#>    data_coleta_dad… site_coleta comite n_ugrhi nome_reuniao data_reuniao
#>    <date>           <glue>      <chr>    <dbl> <chr>        <date>      
#>  1 2020-10-21       http://www… Alto …       6 Resumo Exec… 2020-02-20  
#>  2 2020-10-21       http://www… Alto …       6 Resumo Exec… 2019-12-17  
#>  3 2020-10-21       http://www… Alto …       6 Plenária CB… 2019-09-25  
#>  4 2020-10-21       http://www… Alto …       6 Plenária CB… 2019-07-24  
#>  5 2020-10-21       http://www… Alto …       6 Plenária CB… 2019-03-29  
#>  6 2020-10-21       http://www… Alto …       6 Plenária CB… 2019-03-14  
#>  7 2020-10-21       http://www… Alto …       6 Plenária CB… 2018-12-13  
#>  8 2020-10-21       http://www… Alto …       6 Plenária CB… 2018-09-05  
#>  9 2020-10-21       http://www… Alto …       6 Plenária CB… 2018-06-28  
#> 10 2020-10-21       http://www… Alto …       6 Plenária CB… 2018-04-26  
#> # … with 137 more rows, and 3 more variables: data_postagem <date>,
#> #   numero_link <chr>, url_link <chr>
…
